{
    "gulp": {
        "javascript": [
            "JavaScript/*.js"
        ],
        "sass": [
            "Sass/*.scss"
        ],
        "templates": [
            "Templates/*"
        ]
    },
	"overrides": {
		"suitecommerce/ItemsSearcher@1.0.0/Templates/itemssearcher_item.tpl": "Templates/itemssearcher_item.tpl"
	,	"suitecommerce/ItemsSearcher@1.0.0/Templates/itemssearcher.tpl": "Templates/itemssearcher.tpl"
	}
}
