{
    "gulp": {
        "javascript": [
            "JavaScript/*.js"
        ],
        "templates": [
            "Templates/*"
        ],
        "ssp-libraries": [
            "SuiteScript/*.js"
        ],
        "sass": [
            "Sass/**/*.scss"
        ],
        "services": [
            "SuiteScript/*.Service.ss"
        ]
    },
	"overrides": {
		"suitecommerce/OrderHistory@3.0.0/Templates/order_history_summary.tpl": "Templates/order_history_summary.tpl"
	,	"suitecommerce/OrderHistory@3.0.0/JavaScript/OrderHistory.Summary.View.js": "JavaScript/OrderHistory.Summary.View.js"
	}
}